An Overview of rubias Usage
…
# see that that looks like:
matchy_pairs %>%
  arrange(desc(num_non_miss), desc(num_match))

## # A tibble: 33 x 10
##    num_non_miss num_match indiv_1 indiv_2 collection_1 collection_2
##           <int>     <int> <chr>   <chr>   <chr>        <chr>       
##  1           91        91 T124864 T124866 rec3         rec1        
##  2           91        91 T124864 T125335 rec3         rec3        
##  3           91        91 T124866 T125335 rec1         rec3        
##  4           91        91 T126402 T126403 rec2         rec2        
##  5           91        90 Mill_C… Mill_C… Mill_Cr_sp   Mill_Cr_sp  
##  6           91        90 Cole_R… Cole_R… Cole_Rivers… Cole_Rivers…
##  7           91        90 Cole_R… Cole_R… Cole_Rivers… Cole_Rivers…
##  8           91        90 Umpqua… Umpqua… Umpqua_sp    Umpqua_sp   
##  9           91        90 Umpqua… Umpqua… Umpqua_sp    Umpqua_sp   
## 10           91        90 T125044 T125337 rec2         rec1        
## # … with 23 more rows, and 4 more variables: sample_type_1 <chr>,
## #   repunit_1 <chr>, sample_type_2 <chr>, repunit_2 <chr>
…
# see that that looks like:
matchy_pairs2 %>%
  arrange(desc(num_non_miss), desc(num_match))

## # A tibble: 46 x 10
##    num_non_miss num_match indiv_1 indiv_2 collection_1 collection_2
##           <int>     <int> <chr>   <chr>   <chr>        <chr>       
##  1           91        91 T124864 T124866 rec3         rec1        
##  2           91        91 T124864 T125335 rec3         rec3        
##  3           91        91 T124866 T125335 rec1         rec3        
##  4           91        91 T126402 T126403 rec2         rec2        
##  5           91        90 Mill_C… Mill_C… Mill_Cr_sp   Mill_Cr_sp  
##  6           91        90 Cole_R… Cole_R… Cole_Rivers… Cole_Rivers…
##  7           91        90 Cole_R… Cole_R… Cole_Rivers… Cole_Rivers…
##  8           91        90 Umpqua… Umpqua… Umpqua_sp    Umpqua_sp   
##  9           91        90 Umpqua… Umpqua… Umpqua_sp    Umpqua_sp   
## 10           91        90 T125044 T125337 rec2         rec1        
## # … with 36 more rows, and 4 more variables: sample_type_1 <chr>,
## #   repunit_1 <chr>, sample_type_2 <chr>, repunit_2 <chr>
…
Now, you can look at the self assignment results:

head(sa_chinook, n = 100)

## # A tibble: 100 x 11
##    indiv collection repunit inferred_collec… inferred_repunit
##    <chr> <chr>      <chr>   <chr>            <chr>           
##  1 Feat… Feather_H… Centra… Feather_H_sp     CentralValleyfa 
##  2 Feat… Feather_H… Centra… Feather_H_fa     CentralValleyfa 
##  3 Feat… Feather_H… Centra… Butte_Cr_fa      CentralValleyfa 
##  4 Feat… Feather_H… Centra… Mill_Cr_sp       CentralValleysp 
##  5 Feat… Feather_H… Centra… Mill_Cr_fa       CentralValleyfa 
##  6 Feat… Feather_H… Centra… UpperSacramento… CentralValleysp 
##  7 Feat… Feather_H… Centra… Deer_Cr_sp       CentralValleysp 
##  8 Feat… Feather_H… Centra… Butte_Cr_Sp      CentralValleysp 
##  9 Feat… Feather_H… Centra… Battle_Cr        CentralValleyfa 
## 10 Feat… Feather_H… Centra… Mokelumne_R_fa   CentralValleyfa 
## # … with 90 more rows, and 6 more variables: scaled_likelihood <dbl>,
## #   log_likelihood <dbl>, z_score <dbl>, n_non_miss_loci <int>,
## #   n_miss_loci <int>, missing_loci <list>

The log_likelihood is the log probability of the fish’s genotype given it is from the inferred_collection computed using leave-one-out. The scaled_likelihood is the posterior prob of assigning the fish to the inferred_collection given an equal prior on every collection in the reference. Other columns are as in the output for infer_mixture(). Note that the z_score computed here can be used to assess the distribution of the z_score statistic for fish from known, reference populations. This can be used to compare to values obtained in mixed fisheries.

The output can be summarized by repunit as was done above:

sa_to_repu <- sa_chinook %>%
  group_by(indiv, collection, repunit, inferred_repunit) %>%
  summarise(repu_scaled_like = sum(scaled_likelihood))

head(sa_to_repu, n = 200)

## # A tibble: 200 x 5
## # Groups:   indiv, collection, repunit [6]
##    indiv        collection repunit      inferred_repunit repu_scaled_like
##    <chr>        <chr>      <chr>        <chr>                       <dbl>
##  1 Alsea_R:0001 Alsea_R    NOregonCoast CaliforniaCoast          3.72e- 8
##  2 Alsea_R:0001 Alsea_R    NOregonCoast CentralValleyfa          1.54e-14
##  3 Alsea_R:0001 Alsea_R    NOregonCoast CentralValleysp          8.12e-15
##  4 Alsea_R:0001 Alsea_R    NOregonCoast CentralValleywi          1.22e-23
##  5 Alsea_R:0001 Alsea_R    NOregonCoast CohoSp                   2.09e-52
##  6 Alsea_R:0001 Alsea_R    NOregonCoast CopperR                  3.08e-20
##  7 Alsea_R:0001 Alsea_R    NOregonCoast DeschutesRfa             3.81e-10
##  8 Alsea_R:0001 Alsea_R    NOregonCoast EVancouverIs             1.02e- 8
##  9 Alsea_R:0001 Alsea_R    NOregonCoast KlamathR                 1.11e-11
## 10 Alsea_R:0001 Alsea_R    NOregonCoast LColumbiaRfa             8.52e- 8
## # … with 190 more rows
…
Both of the functions take two required arguments: 1) a data frame of reference genetic data, and 2) the number of the column in which the genetic data start.

Here we use the chinook data to simulate 50 mixture samples of size 200 fish using the default values (Dirichlet parameters of 1.5 for each reporting unit, and Dirichlet parameters of 1.5 for each collection within a reporting unit…)

chin_sims <- assess_reference_loo(reference = chinook, 
                     gen_start_col = 5, 
                     reps = 50, 
                     mixsize = 200)

Here is what the output looks like:

chin_sims

## # A tibble: 3,450 x 9
##    repunit_scenario collection_scen…  iter repunit collection true_pi     n
##    <chr>            <chr>            <int> <chr>   <chr>        <dbl> <dbl>
##  1 1                1                    1 Centra… Feather_H… 8.42e-4     0
##  2 1                1                    1 Centra… Butte_Cr_… 6.55e-4     0
##  3 1                1                    1 Centra… Mill_Cr_sp 1.37e-3     0
##  4 1                1                    1 Centra… Deer_Cr_sp 4.41e-3     1
##  5 1                1                    1 Centra… UpperSacr… 6.25e-4     0
##  6 1                1                    1 Centra… Feather_H… 2.89e-3     2
##  7 1                1                    1 Centra… Butte_Cr_… 8.50e-4     0
##  8 1                1                    1 Centra… Mill_Cr_fa 2.86e-3     1
##  9 1                1                    1 Centra… Deer_Cr_fa 6.53e-3     0
## 10 1                1                    1 Centra… Mokelumne… 8.99e-4     0
## # … with 3,440 more rows, and 2 more variables: post_mean_pi <dbl>,
## #   mle_pi <dbl>
…
Quite often you might be curious about how much you can expect to be able to trust the posterior for individual fish from a mixture like this. You can retrieve all the posteriors computed for the fish simulated in assess_reference_loo() using the return_indiv_posteriors option. When you do this, the function returns a list with components mixture_proportions (which holds a tibble like chin_sims_repu_top6 in the previous section) and indiv_posteriors, which holds all the posteriors (PofZs) for the simulated individuals.

set.seed(100)
chin_sims_with_indivs <- assess_reference_loo(reference = chinook, 
                     gen_start_col = 5, 
                     reps = 50, 
                     mixsize = 200,
                     alpha_repunit = arep,
                     return_indiv_posteriors = TRUE)

# print out the indiv posteriors
chin_sims_with_indivs$indiv_posteriors

## # A tibble: 690,000 x 9
##    repunit_scenario collection_scen…  iter indiv simulated_repun…
##    <chr>            <chr>            <int> <int> <chr>           
##  1 1                1                    1     1 CentralValleyfa 
##  2 1                1                    1     1 CentralValleyfa 
##  3 1                1                    1     1 CentralValleyfa 
##  4 1                1                    1     1 CentralValleyfa 
##  5 1                1                    1     1 CentralValleyfa 
##  6 1                1                    1     1 CentralValleyfa 
##  7 1                1                    1     1 CentralValleyfa 
##  8 1                1                    1     1 CentralValleyfa 
##  9 1                1                    1     1 CentralValleyfa 
## 10 1                1                    1     1 CentralValleyfa 
## # … with 689,990 more rows, and 4 more variables:
## #   simulated_collection <chr>, repunit <chr>, collection <chr>,
## #   PofZ <dbl>
…
six_hundy_scenarios <- lapply(arep$repunit, function(x) tibble(repunit = x, ppn = 1.0))
names(six_hundy_scenarios) <- paste("All", arep$repunit, sep = "-")

Then, we use it, producing only 5 replicates for each scenario:

repu_hundy_results <- assess_reference_loo(reference = chinook, 
                     gen_start_col = 5, 
                     reps = 5, 
                     mixsize = 50,
                     alpha_repunit = six_hundy_scenarios,
                     alpha_collection = 10)
repu_hundy_results

## # A tibble: 2,070 x 9
##    repunit_scenario collection_scen…  iter repunit collection true_pi     n
##    <chr>            <chr>            <int> <chr>   <chr>        <dbl> <dbl>
##  1 All-CentralVall… 1                    1 Centra… Feather_H…   0.100     5
##  2 All-CentralVall… 1                    1 Centra… Butte_Cr_…   0         0
##  3 All-CentralVall… 1                    1 Centra… Mill_Cr_sp   0         0
##  4 All-CentralVall… 1                    1 Centra… Deer_Cr_sp   0         0
##  5 All-CentralVall… 1                    1 Centra… UpperSacr…   0         0
##  6 All-CentralVall… 1                    1 Centra… Feather_H…   0.141     5
##  7 All-CentralVall… 1                    1 Centra… Butte_Cr_…   0.100     5
##  8 All-CentralVall… 1                    1 Centra… Mill_Cr_fa   0.140     5
##  9 All-CentralVall… 1                    1 Centra… Deer_Cr_fa   0.193    14
## 10 All-CentralVall… 1                    1 Centra… Mokelumne…   0.102     5
## # … with 2,060 more rows, and 2 more variables: post_mean_pi <dbl>,
## #   mle_pi <dbl>
…
So, now make a list of those with 100% specifications in the tibbles:

hundy_coll_list <- lapply(hundy_colls, function(x) tibble(collection = x, ppn = 1.0)) %>%
  setNames(paste("100%", hundy_colls, sep = "_"))

Then, do it:

hundy_coll_results <- assess_reference_loo(reference = chinook, 
                     gen_start_col = 5, 
                     reps = 6, 
                     mixsize = 50,
                     alpha_collection = hundy_coll_list)
hundy_coll_results

## # A tibble: 2,070 x 9
##    repunit_scenario collection_scen…  iter repunit collection true_pi     n
##    <chr>            <chr>            <int> <chr>   <chr>        <dbl> <dbl>
##  1 1                100%_Deer_Cr_fa      1 Centra… Feather_H…       0     0
##  2 1                100%_Deer_Cr_fa      1 Centra… Butte_Cr_…       0     0
##  3 1                100%_Deer_Cr_fa      1 Centra… Mill_Cr_sp       0     0
##  4 1                100%_Deer_Cr_fa      1 Centra… Deer_Cr_sp       0     0
##  5 1                100%_Deer_Cr_fa      1 Centra… UpperSacr…       0     0
##  6 1                100%_Deer_Cr_fa      1 Centra… Feather_H…       0     0
##  7 1                100%_Deer_Cr_fa      1 Centra… Butte_Cr_…       0     0
##  8 1                100%_Deer_Cr_fa      1 Centra… Mill_Cr_fa       0     0
##  9 1                100%_Deer_Cr_fa      1 Centra… Deer_Cr_fa       1    50
## 10 1                100%_Deer_Cr_fa      1 Centra… Mokelumne…       0     0
## # … with 2,060 more rows, and 2 more variables: post_mean_pi <dbl>,
## #   mle_pi <dbl>
…
