Using the Fully Bayesian Model in rubias
…
##    time: 0.31 seconds
## Working on mixture collection: rec1 with 36 individuals
##   calculating log-likelihoods of the mixture individuals.   time: 0.00 seconds
##   performing 100 sweeps of method "BR", 35 sweeps of which are burn-in.   time: 0.03 seconds
##   tidying output into a tibble.   time: 0.29 seconds
## Working on mixture collection: rec2 with 35 individuals
##   calculating log-likelihoods of the mixture individuals.   time: 0.00 seconds
##   performing 100 sweeps of method "BR", 35 sweeps of which are burn-in.   time: 0.03 seconds
##   tidying output into a tibble.   time: 0.29 seconds

Note that the output generated by “BR” is still a list of four tidy data frames, but the bootstrapped_proportions data frame of methods “MCMC” and “PB” is replaced with an allele_frequencies data frame. This data frame contains the posterior mean allele frequencies (theta) for each population, updated based on the allocations of mixture individuals throughout MCMC. The first three columns specify the mixture collection, locus and allele in question, and all subsequent columns report the frequency for a particular population.

full_model$allele_frequencies

## # A tibble: 546 x 9
##    mixture_collect… locus allele Deer_Cr_sp Feather_H_fa Sacramento_H  Eel_R
##    <chr>            <chr> <chr>       <dbl>        <dbl>        <dbl>  <dbl>
##  1 rec3             AldB… 2          0.829       0.915       0.900    0.935 
##  2 rec3             AldB… 4          0.171       0.0850      0.100    0.0651
##  3 rec3             Aldo… 1          0.0313      0.00148     0.000764 0.0468
##  4 rec3             Aldo… 4          0.969       0.999       0.999    0.953 
##  5 rec3             OTNA… 1          0.230       0.207       0.455    0.246 
##  6 rec3             OTNA… 3          0.770       0.793       0.545    0.754 
##  7 rec3             OTSB… 2          0.852       0.767       0.555    0.978 
##  8 rec3             OTSB… 4          0.148       0.233       0.445    0.0222
##  9 rec3             OTST… 3          0.892       0.891       0.682    0.865 
## 10 rec3             OTST… 4          0.108       0.109       0.318    0.135 
## # … with 536 more rows, and 2 more variables: Klamath_IGH_fa <dbl>,
## #   Umpqua_sp <dbl>
…
